---
http_interactions:
- request:
    method: get
    uri: http://swapi.co/api/people/?page=2
    body:
      encoding: US-ASCII
      string: ''
    headers:
      User-Agent:
      - Tatooine Ruby Gem - 0.0.1
      Accept-Encoding:
      - gzip;q=1.0,deflate;q=0.6,identity;q=0.3
      Accept:
      - "*/*"
  response:
    status:
      code: 200
      message: OK
    headers:
      Date:
      - Mon, 16 Feb 2015 23:37:41 GMT
      Content-Type:
      - application/json
      Transfer-Encoding:
      - chunked
      Connection:
      - keep-alive
      Set-Cookie:
      - __cfduid=d5563354dac98a8735830445ec0ee25a21424129859; expires=Tue, 16-Feb-16
        23:37:39 GMT; path=/; domain=.swapi.co; HttpOnly
      Allow:
      - GET, HEAD, OPTIONS
      X-Frame-Options:
      - SAMEORIGIN
      Vary:
      - Accept, Cookie
      Via:
      - 1.1 vegur
      Server:
      - cloudflare-nginx
      Cf-Ray:
      - 1b9d93073eaa0a66-LHR
    body:
      encoding: UTF-8
      string: '{"count":82,"next":"http://swapi.co/api/people/?page=3","previous":"http://swapi.co/api/people/?page=1","results":[{"name":"Anakin
        Skywalker","height":"188","mass":"84","hair_color":"blond","skin_color":"fair","eye_color":"blue","birth_year":"41.9BBY","gender":"male","homeworld":"http://swapi.co/api/planets/1/","films":["http://swapi.co/api/films/4/","http://swapi.co/api/films/5/","http://swapi.co/api/films/6/"],"species":["http://swapi.co/api/species/1/"],"vehicles":["http://swapi.co/api/vehicles/44/","http://swapi.co/api/vehicles/46/"],"starships":["http://swapi.co/api/starships/39/","http://swapi.co/api/starships/59/","http://swapi.co/api/starships/65/"],"created":"2014-12-10T16:20:44.310000Z","edited":"2014-12-20T21:17:50.327000Z","url":"http://swapi.co/api/people/11/"},{"name":"Wilhuff
        Tarkin","height":"180","mass":"unknown","hair_color":"auburn, grey","skin_color":"fair","eye_color":"blue","birth_year":"64BBY","gender":"male","homeworld":"http://swapi.co/api/planets/21/","films":["http://swapi.co/api/films/1/","http://swapi.co/api/films/6/"],"species":["http://swapi.co/api/species/1/"],"vehicles":[],"starships":[],"created":"2014-12-10T16:26:56.138000Z","edited":"2014-12-20T21:17:50.330000Z","url":"http://swapi.co/api/people/12/"},{"name":"Chewbacca","height":"228","mass":"112","hair_color":"brown","skin_color":"unknown","eye_color":"blue","birth_year":"200BBY","gender":"male","homeworld":"http://swapi.co/api/planets/14/","films":["http://swapi.co/api/films/1/","http://swapi.co/api/films/2/","http://swapi.co/api/films/3/","http://swapi.co/api/films/6/"],"species":["http://swapi.co/api/species/3/"],"vehicles":["http://swapi.co/api/vehicles/19/"],"starships":["http://swapi.co/api/starships/10/","http://swapi.co/api/starships/22/"],"created":"2014-12-10T16:42:45.066000Z","edited":"2014-12-20T21:17:50.332000Z","url":"http://swapi.co/api/people/13/"},{"name":"Han
        Solo","height":"180","mass":"80","hair_color":"brown","skin_color":"fair","eye_color":"brown","birth_year":"29BBY","gender":"male","homeworld":"http://swapi.co/api/planets/22/","films":["http://swapi.co/api/films/1/","http://swapi.co/api/films/2/","http://swapi.co/api/films/3/"],"species":["http://swapi.co/api/species/1/"],"vehicles":[],"starships":["http://swapi.co/api/starships/10/","http://swapi.co/api/starships/22/"],"created":"2014-12-10T16:49:14.582000Z","edited":"2014-12-20T21:17:50.334000Z","url":"http://swapi.co/api/people/14/"},{"name":"Greedo","height":"173","mass":"74","hair_color":"n/a","skin_color":"green","eye_color":"black","birth_year":"44BBY","gender":"male","homeworld":"http://swapi.co/api/planets/23/","films":["http://swapi.co/api/films/1/"],"species":["http://swapi.co/api/species/4/"],"vehicles":[],"starships":[],"created":"2014-12-10T17:03:30.334000Z","edited":"2014-12-20T21:17:50.336000Z","url":"http://swapi.co/api/people/15/"},{"name":"Jabba
        Desilijic Tiure","height":"175","mass":"1,358","hair_color":"n/a","skin_color":"green-tan,
        brown","eye_color":"orange","birth_year":"600BBY","gender":"hermaphrodite","homeworld":"http://swapi.co/api/planets/24/","films":["http://swapi.co/api/films/1/","http://swapi.co/api/films/3/","http://swapi.co/api/films/4/"],"species":["http://swapi.co/api/species/5/"],"vehicles":[],"starships":[],"created":"2014-12-10T17:11:31.638000Z","edited":"2014-12-20T21:17:50.338000Z","url":"http://swapi.co/api/people/16/"},{"name":"Wedge
        Antilles","height":"170","mass":"77","hair_color":"brown","skin_color":"fair","eye_color":"hazel","birth_year":"21BBY","gender":"male","homeworld":"http://swapi.co/api/planets/22/","films":["http://swapi.co/api/films/1/","http://swapi.co/api/films/2/","http://swapi.co/api/films/3/"],"species":["http://swapi.co/api/species/1/"],"vehicles":["http://swapi.co/api/vehicles/14/"],"starships":["http://swapi.co/api/starships/12/"],"created":"2014-12-12T11:08:06.469000Z","edited":"2014-12-20T21:17:50.341000Z","url":"http://swapi.co/api/people/18/"},{"name":"Jek
        Tono Porkins","height":"180","mass":"110","hair_color":"brown","skin_color":"fair","eye_color":"blue","birth_year":"unknown","gender":"male","homeworld":"http://swapi.co/api/planets/26/","films":["http://swapi.co/api/films/1/"],"species":["http://swapi.co/api/species/1/"],"vehicles":[],"starships":["http://swapi.co/api/starships/12/"],"created":"2014-12-12T11:16:56.569000Z","edited":"2014-12-20T21:17:50.343000Z","url":"http://swapi.co/api/people/19/"},{"name":"Yoda","height":"66","mass":"17","hair_color":"white","skin_color":"green","eye_color":"brown","birth_year":"896BBY","gender":"male","homeworld":"http://swapi.co/api/planets/28/","films":["http://swapi.co/api/films/2/","http://swapi.co/api/films/3/","http://swapi.co/api/films/4/","http://swapi.co/api/films/5/","http://swapi.co/api/films/6/"],"species":["http://swapi.co/api/species/6/"],"vehicles":[],"starships":[],"created":"2014-12-15T12:26:01.042000Z","edited":"2014-12-20T21:17:50.345000Z","url":"http://swapi.co/api/people/20/"},{"name":"Palpatine","height":"170","mass":"75","hair_color":"grey","skin_color":"pale","eye_color":"yellow","birth_year":"82BBY","gender":"male","homeworld":"http://swapi.co/api/planets/8/","films":["http://swapi.co/api/films/2/","http://swapi.co/api/films/3/","http://swapi.co/api/films/4/","http://swapi.co/api/films/5/","http://swapi.co/api/films/6/"],"species":["http://swapi.co/api/species/1/"],"vehicles":[],"starships":[],"created":"2014-12-15T12:48:05.971000Z","edited":"2014-12-20T21:17:50.347000Z","url":"http://swapi.co/api/people/21/"}]}'
    http_version: 
  recorded_at: Mon, 16 Feb 2015 23:37:42 GMT
recorded_with: VCR 2.9.3
