---
http_interactions:
- request:
    method: get
    uri: https://swapi.co/api/planets/?page=2
    body:
      encoding: US-ASCII
      string: ''
    headers:
      User-Agent:
      - Tatooine Ruby Gem - 1.0.1
      Accept-Encoding:
      - gzip;q=1.0,deflate;q=0.6,identity;q=0.3
      Accept:
      - "*/*"
  response:
    status:
      code: 200
      message: OK
    headers:
      Date:
      - Tue, 28 Aug 2018 21:41:43 GMT
      Content-Type:
      - application/json
      Transfer-Encoding:
      - chunked
      Connection:
      - keep-alive
      Set-Cookie:
      - __cfduid=dfa523631a0624c4117596e31deb794c11535492502; expires=Wed, 28-Aug-19
        21:41:42 GMT; path=/; domain=.swapi.co; HttpOnly; Secure
      Etag:
      - W/"f4e69f13b9c4327fefae681b59797d15"
      Allow:
      - GET, HEAD, OPTIONS
      X-Frame-Options:
      - SAMEORIGIN
      Vary:
      - Accept, Cookie
      Via:
      - 1.1 vegur
      Expect-Ct:
      - max-age=604800, report-uri="https://report-uri.cloudflare.com/cdn-cgi/beacon/expect-ct"
      Server:
      - cloudflare
      Cf-Ray:
      - 4519f18f3a594136-HAM
    body:
      encoding: ASCII-8BIT
      string: '{"count":61,"next":"https://swapi.co/api/planets/?page=3","previous":"https://swapi.co/api/planets/?page=1","results":[{"name":"Utapau","rotation_period":"27","orbital_period":"351","diameter":"12900","climate":"temperate,
        arid, windy","gravity":"1 standard","terrain":"scrublands, savanna, canyons,
        sinkholes","surface_water":"0.9","population":"95000000","residents":["https://swapi.co/api/people/83/"],"films":["https://swapi.co/api/films/6/"],"created":"2014-12-10T12:49:01.491000Z","edited":"2014-12-20T20:58:18.439000Z","url":"https://swapi.co/api/planets/12/"},{"name":"Mustafar","rotation_period":"36","orbital_period":"412","diameter":"4200","climate":"hot","gravity":"1
        standard","terrain":"volcanoes, lava rivers, mountains, caves","surface_water":"0","population":"20000","residents":[],"films":["https://swapi.co/api/films/6/"],"created":"2014-12-10T12:50:16.526000Z","edited":"2014-12-20T20:58:18.440000Z","url":"https://swapi.co/api/planets/13/"},{"name":"Kashyyyk","rotation_period":"26","orbital_period":"381","diameter":"12765","climate":"tropical","gravity":"1
        standard","terrain":"jungle, forests, lakes, rivers","surface_water":"60","population":"45000000","residents":["https://swapi.co/api/people/13/","https://swapi.co/api/people/80/"],"films":["https://swapi.co/api/films/6/"],"created":"2014-12-10T13:32:00.124000Z","edited":"2014-12-20T20:58:18.442000Z","url":"https://swapi.co/api/planets/14/"},{"name":"Polis
        Massa","rotation_period":"24","orbital_period":"590","diameter":"0","climate":"artificial
        temperate ","gravity":"0.56 standard","terrain":"airless asteroid","surface_water":"0","population":"1000000","residents":[],"films":["https://swapi.co/api/films/6/"],"created":"2014-12-10T13:33:46.405000Z","edited":"2014-12-20T20:58:18.444000Z","url":"https://swapi.co/api/planets/15/"},{"name":"Mygeeto","rotation_period":"12","orbital_period":"167","diameter":"10088","climate":"frigid","gravity":"1
        standard","terrain":"glaciers, mountains, ice canyons","surface_water":"unknown","population":"19000000","residents":[],"films":["https://swapi.co/api/films/6/"],"created":"2014-12-10T13:43:39.139000Z","edited":"2014-12-20T20:58:18.446000Z","url":"https://swapi.co/api/planets/16/"},{"name":"Felucia","rotation_period":"34","orbital_period":"231","diameter":"9100","climate":"hot,
        humid","gravity":"0.75 standard","terrain":"fungus forests","surface_water":"unknown","population":"8500000","residents":[],"films":["https://swapi.co/api/films/6/"],"created":"2014-12-10T13:44:50.397000Z","edited":"2014-12-20T20:58:18.447000Z","url":"https://swapi.co/api/planets/17/"},{"name":"Cato
        Neimoidia","rotation_period":"25","orbital_period":"278","diameter":"0","climate":"temperate,
        moist","gravity":"1 standard","terrain":"mountains, fields, forests, rock
        arches","surface_water":"unknown","population":"10000000","residents":["https://swapi.co/api/people/33/"],"films":["https://swapi.co/api/films/6/"],"created":"2014-12-10T13:46:28.704000Z","edited":"2014-12-20T20:58:18.449000Z","url":"https://swapi.co/api/planets/18/"},{"name":"Saleucami","rotation_period":"26","orbital_period":"392","diameter":"14920","climate":"hot","gravity":"unknown","terrain":"caves,
        desert, mountains, volcanoes","surface_water":"unknown","population":"1400000000","residents":[],"films":["https://swapi.co/api/films/6/"],"created":"2014-12-10T13:47:46.874000Z","edited":"2014-12-20T20:58:18.450000Z","url":"https://swapi.co/api/planets/19/"},{"name":"Stewjon","rotation_period":"unknown","orbital_period":"unknown","diameter":"0","climate":"temperate","gravity":"1
        standard","terrain":"grass","surface_water":"unknown","population":"unknown","residents":["https://swapi.co/api/people/10/"],"films":[],"created":"2014-12-10T16:16:26.566000Z","edited":"2014-12-20T20:58:18.452000Z","url":"https://swapi.co/api/planets/20/"},{"name":"Eriadu","rotation_period":"24","orbital_period":"360","diameter":"13490","climate":"polluted","gravity":"1
        standard","terrain":"cityscape","surface_water":"unknown","population":"22000000000","residents":["https://swapi.co/api/people/12/"],"films":[],"created":"2014-12-10T16:26:54.384000Z","edited":"2014-12-20T20:58:18.454000Z","url":"https://swapi.co/api/planets/21/"}]}'
    http_version: 
  recorded_at: Tue, 28 Aug 2018 21:41:43 GMT
recorded_with: VCR 2.9.3
