---
http_interactions:
- request:
    method: get
    uri: https://swapi.co/api/species/?page=2
    body:
      encoding: US-ASCII
      string: ''
    headers:
      User-Agent:
      - Tatooine Ruby Gem - 1.0.1
      Accept-Encoding:
      - gzip;q=1.0,deflate;q=0.6,identity;q=0.3
      Accept:
      - "*/*"
  response:
    status:
      code: 200
      message: OK
    headers:
      Date:
      - Tue, 28 Aug 2018 21:41:48 GMT
      Content-Type:
      - application/json
      Transfer-Encoding:
      - chunked
      Connection:
      - keep-alive
      Set-Cookie:
      - __cfduid=d78c33e64c83c2417d5548dc6a88009ab1535492508; expires=Wed, 28-Aug-19
        21:41:48 GMT; path=/; domain=.swapi.co; HttpOnly; Secure
      Etag:
      - W/"19c89a3a11dc907bc9fe2e6f2a044be2"
      Allow:
      - GET, HEAD, OPTIONS
      X-Frame-Options:
      - SAMEORIGIN
      Vary:
      - Accept, Cookie
      Via:
      - 1.1 vegur
      Expect-Ct:
      - max-age=604800, report-uri="https://report-uri.cloudflare.com/cdn-cgi/beacon/expect-ct"
      Server:
      - cloudflare
      Cf-Ray:
      - 4519f1afece8409a-HAM
    body:
      encoding: ASCII-8BIT
      string: '{"count":37,"next":"https://swapi.co/api/species/?page=3","previous":"https://swapi.co/api/species/?page=1","results":[{"name":"Twi''lek","classification":"mammals","designation":"sentient","average_height":"200","skin_colors":"orange,
        yellow, blue, green, pink, purple, tan","hair_colors":"none","eye_colors":"blue,
        brown, orange, pink","average_lifespan":"unknown","homeworld":"https://swapi.co/api/planets/37/","language":"Twi''leki","people":["https://swapi.co/api/people/45/","https://swapi.co/api/people/46/"],"films":["https://swapi.co/api/films/5/","https://swapi.co/api/films/4/","https://swapi.co/api/films/6/","https://swapi.co/api/films/3/"],"created":"2014-12-20T09:48:02.406000Z","edited":"2014-12-20T21:36:42.169000Z","url":"https://swapi.co/api/species/15/"},{"name":"Aleena","classification":"reptile","designation":"sentient","average_height":"80","skin_colors":"blue,
        gray","hair_colors":"none","eye_colors":"unknown","average_lifespan":"79","homeworld":"https://swapi.co/api/planets/38/","language":"Aleena","people":["https://swapi.co/api/people/47/"],"films":["https://swapi.co/api/films/4/"],"created":"2014-12-20T09:53:16.481000Z","edited":"2014-12-20T21:36:42.171000Z","url":"https://swapi.co/api/species/16/"},{"name":"Vulptereen","classification":"unknown","designation":"sentient","average_height":"100","skin_colors":"grey","hair_colors":"none","eye_colors":"yellow","average_lifespan":"unknown","homeworld":"https://swapi.co/api/planets/39/","language":"vulpterish","people":["https://swapi.co/api/people/48/"],"films":["https://swapi.co/api/films/4/"],"created":"2014-12-20T09:57:33.128000Z","edited":"2014-12-20T21:36:42.173000Z","url":"https://swapi.co/api/species/17/"},{"name":"Xexto","classification":"unknown","designation":"sentient","average_height":"125","skin_colors":"grey,
        yellow, purple","hair_colors":"none","eye_colors":"black","average_lifespan":"unknown","homeworld":"https://swapi.co/api/planets/40/","language":"Xextese","people":["https://swapi.co/api/people/49/"],"films":["https://swapi.co/api/films/4/"],"created":"2014-12-20T10:02:13.915000Z","edited":"2014-12-20T21:36:42.175000Z","url":"https://swapi.co/api/species/18/"},{"name":"Toong","classification":"unknown","designation":"sentient","average_height":"200","skin_colors":"grey,
        green, yellow","hair_colors":"none","eye_colors":"orange","average_lifespan":"unknown","homeworld":"https://swapi.co/api/planets/41/","language":"Tundan","people":["https://swapi.co/api/people/50/"],"films":["https://swapi.co/api/films/4/","https://swapi.co/api/films/6/"],"created":"2014-12-20T10:08:36.795000Z","edited":"2014-12-20T21:36:42.177000Z","url":"https://swapi.co/api/species/19/"},{"name":"Cerean","classification":"mammal","designation":"sentient","average_height":"200","skin_colors":"pale
        pink","hair_colors":"red, blond, black, white","eye_colors":"hazel","average_lifespan":"unknown","homeworld":"https://swapi.co/api/planets/43/","language":"Cerean","people":["https://swapi.co/api/people/52/"],"films":["https://swapi.co/api/films/4/","https://swapi.co/api/films/6/"],"created":"2014-12-20T10:15:33.765000Z","edited":"2014-12-20T21:36:42.179000Z","url":"https://swapi.co/api/species/20/"},{"name":"Nautolan","classification":"amphibian","designation":"sentient","average_height":"180","skin_colors":"green,
        blue, brown, red","hair_colors":"none","eye_colors":"black","average_lifespan":"70","homeworld":"https://swapi.co/api/planets/44/","language":"Nautila","people":["https://swapi.co/api/people/53/"],"films":["https://swapi.co/api/films/4/"],"created":"2014-12-20T10:18:58.610000Z","edited":"2014-12-20T21:36:42.181000Z","url":"https://swapi.co/api/species/21/"},{"name":"Zabrak","classification":"mammal","designation":"sentient","average_height":"180","skin_colors":"pale,
        brown, red, orange, yellow","hair_colors":"black","eye_colors":"brown, orange","average_lifespan":"unknown","homeworld":"https://swapi.co/api/planets/45/","language":"Zabraki","people":["https://swapi.co/api/people/44/","https://swapi.co/api/people/54/"],"films":["https://swapi.co/api/films/4/"],"created":"2014-12-20T10:26:59.894000Z","edited":"2014-12-20T21:36:42.183000Z","url":"https://swapi.co/api/species/22/"},{"name":"Tholothian","classification":"mammal","designation":"sentient","average_height":"unknown","skin_colors":"dark","hair_colors":"unknown","eye_colors":"blue,
        indigo","average_lifespan":"unknown","homeworld":"https://swapi.co/api/planets/46/","language":"unknown","people":["https://swapi.co/api/people/55/"],"films":["https://swapi.co/api/films/4/","https://swapi.co/api/films/6/"],"created":"2014-12-20T10:29:13.798000Z","edited":"2014-12-20T21:36:42.186000Z","url":"https://swapi.co/api/species/23/"},{"name":"Iktotchi","classification":"unknown","designation":"sentient","average_height":"180","skin_colors":"pink","hair_colors":"none","eye_colors":"orange","average_lifespan":"unknown","homeworld":"https://swapi.co/api/planets/47/","language":"Iktotchese","people":["https://swapi.co/api/people/56/"],"films":["https://swapi.co/api/films/4/","https://swapi.co/api/films/6/"],"created":"2014-12-20T10:32:13.046000Z","edited":"2014-12-20T21:36:42.188000Z","url":"https://swapi.co/api/species/24/"}]}'
    http_version: 
  recorded_at: Tue, 28 Aug 2018 21:41:48 GMT
recorded_with: VCR 2.9.3
