---
http_interactions:
- request:
    method: get
    uri: http://swapi.co/api/species/
    body:
      encoding: US-ASCII
      string: ''
    headers:
      User-Agent:
      - Tatooine Ruby Gem - 0.0.1
      Accept-Encoding:
      - gzip;q=1.0,deflate;q=0.6,identity;q=0.3
      Accept:
      - "*/*"
  response:
    status:
      code: 200
      message: OK
    headers:
      Date:
      - Tue, 17 Feb 2015 00:23:19 GMT
      Content-Type:
      - application/json
      Transfer-Encoding:
      - chunked
      Connection:
      - keep-alive
      Set-Cookie:
      - __cfduid=d0b8f1b1bc0dbb441edf6bb1576e832a91424132599; expires=Wed, 17-Feb-16
        00:23:19 GMT; path=/; domain=.swapi.co; HttpOnly
      Allow:
      - GET, HEAD, OPTIONS
      X-Frame-Options:
      - SAMEORIGIN
      Vary:
      - Accept, Cookie
      Via:
      - 1.1 vegur
      Server:
      - cloudflare-nginx
      Cf-Ray:
      - 1b9dd5e94cc806ee-LHR
    body:
      encoding: UTF-8
      string: '{"count":37,"next":"http://swapi.co/api/species/?page=2","previous":null,"results":[{"name":"Droid","classification":"artificial","designation":"sentient","average_height":"n/a","skin_colors":"n/a","hair_colors":"n/a","eye_colors":"n/a","average_lifespan":"indefinite","homeworld":null,"language":"n/a","people":["http://swapi.co/api/people/2/","http://swapi.co/api/people/3/","http://swapi.co/api/people/8/","http://swapi.co/api/people/23/"],"films":["http://swapi.co/api/films/1/","http://swapi.co/api/films/2/","http://swapi.co/api/films/3/","http://swapi.co/api/films/4/","http://swapi.co/api/films/5/","http://swapi.co/api/films/6/"],"created":"2014-12-10T15:16:16.259000Z","edited":"2014-12-20T21:36:42.139000Z","url":"http://swapi.co/api/species/2/"},{"name":"Rodian","classification":"sentient","designation":"reptilian","average_height":"170","skin_colors":"green,
        blue","hair_colors":"n/a","eye_colors":"black","average_lifespan":"unknown","homeworld":"http://swapi.co/api/planets/23/","language":"Galatic
        Basic","people":["http://swapi.co/api/people/15/"],"films":["http://swapi.co/api/films/1/"],"created":"2014-12-10T17:05:26.471000Z","edited":"2014-12-20T21:36:42.144000Z","url":"http://swapi.co/api/species/4/"},{"name":"Hutt","classification":"gastropod","designation":"sentient","average_height":"300","skin_colors":"green,
        brown, tan","hair_colors":"n/a","eye_colors":"yellow, red","average_lifespan":"1000","homeworld":"http://swapi.co/api/planets/24/","language":"Huttese","people":["http://swapi.co/api/people/16/"],"films":["http://swapi.co/api/films/1/","http://swapi.co/api/films/3/"],"created":"2014-12-10T17:12:50.410000Z","edited":"2014-12-20T21:36:42.146000Z","url":"http://swapi.co/api/species/5/"},{"name":"Yoda''s
        species","classification":"mammal","designation":"sentient","average_height":"66","skin_colors":"green,
        yellow","hair_colors":"brown, white","eye_colors":"brown, green, yellow","average_lifespan":"900","homeworld":"http://swapi.co/api/planets/28/","language":"Galactic
        basic","people":["http://swapi.co/api/people/20/"],"films":["http://swapi.co/api/films/2/","http://swapi.co/api/films/3/","http://swapi.co/api/films/4/","http://swapi.co/api/films/5/","http://swapi.co/api/films/6/"],"created":"2014-12-15T12:27:22.877000Z","edited":"2014-12-20T21:36:42.148000Z","url":"http://swapi.co/api/species/6/"},{"name":"Trandoshan","classification":"reptile","designation":"sentient","average_height":"200","skin_colors":"brown,
        green","hair_colors":"none","eye_colors":"yellow, orange","average_lifespan":"unknown","homeworld":"http://swapi.co/api/planets/29/","language":"Dosh","people":["http://swapi.co/api/people/24/"],"films":["http://swapi.co/api/films/2/"],"created":"2014-12-15T13:07:47.704000Z","edited":"2014-12-20T21:36:42.151000Z","url":"http://swapi.co/api/species/7/"},{"name":"Mon
        Calamari","classification":"amphibian","designation":"sentient","average_height":"160","skin_colors":"red,
        blue, brown, magenta","hair_colors":"none","eye_colors":"yellow","average_lifespan":"unknown","homeworld":"http://swapi.co/api/planets/31/","language":"Mon
        Calamarian","people":["http://swapi.co/api/people/27/"],"films":["http://swapi.co/api/films/3/"],"created":"2014-12-18T11:09:52.263000Z","edited":"2014-12-20T21:36:42.153000Z","url":"http://swapi.co/api/species/8/"},{"name":"Ewok","classification":"mammal","designation":"sentient","average_height":"100","skin_colors":"brown","hair_colors":"white,
        brown, black","eye_colors":"orange, brown","average_lifespan":"unknown","homeworld":"http://swapi.co/api/planets/7/","language":"Ewokese","people":["http://swapi.co/api/people/30/"],"films":["http://swapi.co/api/films/3/"],"created":"2014-12-18T11:22:00.285000Z","edited":"2014-12-20T21:36:42.155000Z","url":"http://swapi.co/api/species/9/"},{"name":"Sullustan","classification":"mammal","designation":"sentient","average_height":"180","skin_colors":"pale","hair_colors":"none","eye_colors":"black","average_lifespan":"unknown","homeworld":"http://swapi.co/api/planets/33/","language":"Sullutese","people":["http://swapi.co/api/people/31/"],"films":["http://swapi.co/api/films/3/"],"created":"2014-12-18T11:26:20.103000Z","edited":"2014-12-20T21:36:42.157000Z","url":"http://swapi.co/api/species/10/"},{"name":"Neimodian","classification":"unknown","designation":"sentient","average_height":"180","skin_colors":"grey,
        green","hair_colors":"none","eye_colors":"red, pink","average_lifespan":"unknown","homeworld":"http://swapi.co/api/planets/18/","language":"Neimoidia","people":["http://swapi.co/api/people/33/"],"films":["http://swapi.co/api/films/4/"],"created":"2014-12-19T17:07:31.319000Z","edited":"2014-12-20T21:36:42.160000Z","url":"http://swapi.co/api/species/11/"},{"name":"Gungan","classification":"amphibian","designation":"sentient","average_height":"190","skin_colors":"brown,
        green","hair_colors":"none","eye_colors":"orange","average_lifespan":"unknown","homeworld":"http://swapi.co/api/planets/8/","language":"Gungan
        basic","people":["http://swapi.co/api/people/36/","http://swapi.co/api/people/37/","http://swapi.co/api/people/38/"],"films":["http://swapi.co/api/films/4/","http://swapi.co/api/films/5/"],"created":"2014-12-19T17:30:37.341000Z","edited":"2014-12-20T21:36:42.163000Z","url":"http://swapi.co/api/species/12/"}]}'
    http_version: 
  recorded_at: Tue, 17 Feb 2015 00:23:21 GMT
recorded_with: VCR 2.9.3
